GET https://kartidea.com/wp-content/cache/min/1/wp-content/themes/rehub-theme/js/custom_floatpanel.js?ver=1647927583 HTTP/2.0
sec-ch-ua: " Not A;Brand";v="99", "Chromium";v="99", "Google Chrome";v="99"
sec-ch-ua-mobile: ?0
user-agent: Mozilla/5.0 (Windows NT 10.0; Win64; x64) AppleWebKit/537.36 (KHTML, like Gecko) Chrome/99.0.4844.84 Safari/537.36
sec-ch-ua-platform: "Windows"
accept: */*
sec-fetch-site: same-origin
sec-fetch-mode: no-cors
sec-fetch-dest: script
referer: https://kartidea.com/shop/event-and-party-supplies/party-supplies/mibote-70pcs-led-light-up-toys-party-favors-glow-in-the-dark-party-supplies-for-kid-adults-with-40-finger-lights-10-jelly-rings-5-flashing-glasses-4-bracelets-4-fiber-optic-hair-lights-and-4-cryst/
accept-encoding: gzip, deflate, br
accept-language: en-GB,en-US;q=0.9,en;q=0.8
cookie: _gid=GA1.2.788254530.1649052333; PHPSESSID=9c22ff8a25dd1516e71714b5b8fa9b5a; _gat_gtag_UA_223632089_1=1; _ga=GA1.1.532107415.1649052333; _ga_6B500487W3=GS1.1.1649052333.1.1.1649052396.0

